School Salary
…
mhd_tax_peers

# A tibble: 23 × 40
   DOR.Code Municipality Fiscal.Year Tax.Levy State.Aid Local.Receipts All.Other
   <fct>    <chr>        <fct>          <dbl>     <dbl>          <dbl>     <dbl>
 1 041      Brewster     2023          4.06e7   2393669       5574665   4617855 
 2 073      Dedham       2023          1.02e8  11015311       8053207.  7951883 
 3 096      Falmouth     2023          1.19e8  13969155      22296500  15028464 
 4 125      Harvard      2023          2.64e7   4310611       1671354   4197047.
 5 131      Hingham      2023          9.57e7  10475993      14623730   8303718 
 6 136      Holliston    2023          5.44e7  11209150       3597076   8063790 
 7 141      Hudson       2023          6.11e7  17277821      15718443.  4698678.
 8 159      Longmeadow   2023          6.03e7   8515105       5526098   3210633.
 9 164      Lynnfield    2023          5.19e7   6419355       5249912   3551917.
10 168      Marblehead   2023          7.91e7   8289613       5592209. 11090789.
# ℹ 13 more rows
# ℹ 33 more variables: Enterprise...CPA.Funds <dbl>, Total.Receipts...9 <dbl>,
#   Tax.Levy.as...of.Total...10 <dbl>, State.Aid.as...of.Total...11 <dbl>,
#   Local.Receipts.as...of.Total...12 <dbl>, All.Other.as...of.Total <dbl>,
#   Total.Receipts...14 <dbl>, Tax.Levy.as...of.Total...15 <dbl>,
#   State.Aid.as...of.Total...16 <dbl>,
#   Local.Receipts.as...of.Total...17 <dbl>, …
…
